%!PS-Adobe-3.0 EPSF-3.0
%%Creator: MATLAB, The Mathworks, Inc. Version 7.8.0.347 (R2009a). Operating System: Microsoft Windows Vista.
%%Title: C:\Eclipse\GitRepos\gps_energy_hardware\GPS_Energy_Hardware\pics\kalman_example.eps
%%CreationDate: 06/28/2013  10:42:58
%%DocumentNeededFonts: Helvetica
%%DocumentProcessColors: Cyan Magenta Yellow Black
%%LanguageLevel: 2
%%Pages: 1
%%BoundingBox:   -98   223   693   618
%%EndComments

%%BeginProlog
% MathWorks dictionary
/MathWorks 160 dict begin
% definition operators
/bdef {bind def} bind def
/ldef {load def} bind def
/xdef {exch def} bdef
/xstore {exch store} bdef
% operator abbreviations
/c  /clip ldef
/cc /concat ldef
/cp /closepath ldef
/gr /grestore ldef
/gs /gsave ldef
/mt /moveto ldef
/np /newpath ldef
/cm /currentmatrix ldef
/sm /setmatrix ldef
/rm /rmoveto ldef
/rl /rlineto ldef
/s {show newpath} bdef
/sc {setcmykcolor} bdef
/sr /setrgbcolor ldef
/sg /setgray ldef
/w /setlinewidth ldef
/j /setlinejoin ldef
/cap /setlinecap ldef
/rc {rectclip} bdef
/rf {rectfill} bdef
% page state control
/pgsv () def
/bpage {/pgsv save def} bdef
/epage {pgsv restore} bdef
/bplot /gsave ldef
/eplot {stroke grestore} bdef
% orientation switch
/portraitMode 0 def /landscapeMode 1 def /rotateMode 2 def
% coordinate system mappings
/dpi2point 0 def
% font control
/FontSize 0 def
/FMS {/FontSize xstore findfont [FontSize 0 0 FontSize neg 0 0]
  makefont setfont} bdef
/ISOLatin1Encoding where {pop /WindowsLatin1Encoding 256 array bdef
ISOLatin1Encoding WindowsLatin1Encoding copy pop
/.notdef/.notdef/quotesinglbase/florin/quotedblbase/ellipsis/dagger
/daggerdbl/circumflex/perthousand/Scaron/guilsinglleft/OE/.notdef/.notdef
/.notdef/.notdef/quoteleft/quoteright/quotedblleft/quotedblright/bullet
/endash/emdash/tilde/trademark/scaron/guilsinglright/oe/.notdef/.notdef
/Ydieresis WindowsLatin1Encoding 128 32 getinterval astore pop}
{/WindowsLatin1Encoding StandardEncoding bdef} ifelse
/reencode {exch dup where {pop load} {pop StandardEncoding} ifelse
  exch dup 3 1 roll findfont dup length dict begin
  { 1 index /FID ne {def}{pop pop} ifelse } forall
  /Encoding exch def currentdict end definefont pop} bdef
/isroman {findfont /CharStrings get /Agrave known} bdef
/FMSR {3 1 roll 1 index dup isroman {reencode} {pop pop} ifelse
  exch FMS} bdef
/csm {1 dpi2point div -1 dpi2point div scale neg translate
 dup landscapeMode eq {pop -90 rotate}
  {rotateMode eq {90 rotate} if} ifelse} bdef
% line types: solid, dotted, dashed, dotdash
/SO { [] 0 setdash } bdef
/DO { [.5 dpi2point mul 4 dpi2point mul] 0 setdash } bdef
/DA { [6 dpi2point mul] 0 setdash } bdef
/DD { [.5 dpi2point mul 4 dpi2point mul 6 dpi2point mul 4
  dpi2point mul] 0 setdash } bdef
% macros for lines and objects
/L {lineto stroke} bdef
/MP {3 1 roll moveto 1 sub {rlineto} repeat} bdef
/AP {{rlineto} repeat} bdef
/PDlw -1 def
/W {/PDlw currentlinewidth def setlinewidth} def
/PP {closepath eofill} bdef
/DP {closepath stroke} bdef
/MR {4 -2 roll moveto dup  0 exch rlineto exch 0 rlineto
  neg 0 exch rlineto closepath} bdef
/FR {MR stroke} bdef
/PR {MR fill} bdef
/L1i {{currentfile picstr readhexstring pop} image} bdef
/tMatrix matrix def
/MakeOval {newpath tMatrix currentmatrix pop translate scale
0 0 1 0 360 arc tMatrix setmatrix} bdef
/FO {MakeOval stroke} bdef
/PO {MakeOval fill} bdef
/PD {currentlinewidth 2 div 0 360 arc fill
   PDlw -1 eq not {PDlw w /PDlw -1 def} if} def
/FA {newpath tMatrix currentmatrix pop translate scale
  0 0 1 5 -2 roll arc tMatrix setmatrix stroke} bdef
/PA {newpath tMatrix currentmatrix pop	translate 0 0 moveto scale
  0 0 1 5 -2 roll arc closepath tMatrix setmatrix fill} bdef
/FAn {newpath tMatrix currentmatrix pop translate scale
  0 0 1 5 -2 roll arcn tMatrix setmatrix stroke} bdef
/PAn {newpath tMatrix currentmatrix pop translate 0 0 moveto scale
  0 0 1 5 -2 roll arcn closepath tMatrix setmatrix fill} bdef
/vradius 0 def /hradius 0 def /lry 0 def
/lrx 0 def /uly 0 def /ulx 0 def /rad 0 def
/MRR {/vradius xdef /hradius xdef /lry xdef /lrx xdef /uly xdef
  /ulx xdef newpath tMatrix currentmatrix pop ulx hradius add uly
  vradius add translate hradius vradius scale 0 0 1 180 270 arc 
  tMatrix setmatrix lrx hradius sub uly vradius add translate
  hradius vradius scale 0 0 1 270 360 arc tMatrix setmatrix
  lrx hradius sub lry vradius sub translate hradius vradius scale
  0 0 1 0 90 arc tMatrix setmatrix ulx hradius add lry vradius sub
  translate hradius vradius scale 0 0 1 90 180 arc tMatrix setmatrix
  closepath} bdef
/FRR {MRR stroke } bdef
/PRR {MRR fill } bdef
/MlrRR {/lry xdef /lrx xdef /uly xdef /ulx xdef /rad lry uly sub 2 div def
  newpath tMatrix currentmatrix pop ulx rad add uly rad add translate
  rad rad scale 0 0 1 90 270 arc tMatrix setmatrix lrx rad sub lry rad
  sub translate rad rad scale 0 0 1 270 90 arc tMatrix setmatrix
  closepath} bdef
/FlrRR {MlrRR stroke } bdef
/PlrRR {MlrRR fill } bdef
/MtbRR {/lry xdef /lrx xdef /uly xdef /ulx xdef /rad lrx ulx sub 2 div def
  newpath tMatrix currentmatrix pop ulx rad add uly rad add translate
  rad rad scale 0 0 1 180 360 arc tMatrix setmatrix lrx rad sub lry rad
  sub translate rad rad scale 0 0 1 0 180 arc tMatrix setmatrix
  closepath} bdef
/FtbRR {MtbRR stroke } bdef
/PtbRR {MtbRR fill } bdef
/stri 6 array def /dtri 6 array def
/smat 6 array def /dmat 6 array def
/tmat1 6 array def /tmat2 6 array def /dif 3 array def
/asub {/ind2 exch def /ind1 exch def dup dup
  ind1 get exch ind2 get sub exch } bdef
/tri_to_matrix {
  2 0 asub 3 1 asub 4 0 asub 5 1 asub
  dup 0 get exch 1 get 7 -1 roll astore } bdef
/compute_transform {
  dmat dtri tri_to_matrix tmat1 invertmatrix 
  smat stri tri_to_matrix tmat2 concatmatrix } bdef
/ds {stri astore pop} bdef
/dt {dtri astore pop} bdef
/db {2 copy /cols xdef /rows xdef mul dup 3 mul string
  currentfile 
  3 index 0 eq {/ASCIIHexDecode filter}
  {/ASCII85Decode filter 3 index 2 eq {/RunLengthDecode filter} if }
  ifelse exch readstring pop
  dup 0 3 index getinterval /rbmap xdef
  dup 2 index dup getinterval /gbmap xdef
  1 index dup 2 mul exch getinterval /bbmap xdef pop pop}bdef
/it {gs np dtri aload pop moveto lineto lineto cp c
  cols rows 8 compute_transform 
  rbmap gbmap bbmap true 3 colorimage gr}bdef
/il {newpath moveto lineto stroke}bdef
currentdict end def
%%EndProlog

%%BeginSetup
MathWorks begin

0 cap

end
%%EndSetup

%%Page: 1 1
%%BeginPageSetup
%%PageBoundingBox:   -98   223   693   618
MathWorks begin
bpage
%%EndPageSetup

%%BeginObject: obj1
bplot

/dpi2point 12 def
portraitMode -1176 7416 csm

    0     0  9503  4736 rc
87 dict begin %Colortable dictionary
/c0 { 0.000000 0.000000 0.000000 sr} bdef
/c1 { 1.000000 1.000000 1.000000 sr} bdef
/c2 { 0.900000 0.000000 0.000000 sr} bdef
/c3 { 0.000000 0.820000 0.000000 sr} bdef
/c4 { 0.000000 0.000000 0.800000 sr} bdef
/c5 { 0.910000 0.820000 0.320000 sr} bdef
/c6 { 1.000000 0.260000 0.820000 sr} bdef
/c7 { 0.000000 0.820000 0.820000 sr} bdef
c0
1 j
1 sg
   0    0 9504 4737 rf
6 w
0 4347 9034 0 0 -4347 397 4419 4 MP
PP
-9034 0 0 4347 9034 0 0 -4347 397 4419 5 MP stroke
4 w
DO
SO
6 w
0 sg
 397 4419 mt 9431 4419 L
 397 4419 mt  397   72 L
 848 4419 mt  848 4328 L
%%IncludeResource: font Helvetica
/Helvetica /WindowsLatin1Encoding 120 FMSR

 815 4564 mt 
(1) s
1752 4419 mt 1752 4328 L
1719 4564 mt 
(2) s
2655 4419 mt 2655 4328 L
2622 4564 mt 
(3) s
3558 4419 mt 3558 4328 L
3525 4564 mt 
(4) s
4462 4419 mt 4462 4328 L
4429 4564 mt 
(5) s
5365 4419 mt 5365 4328 L
5332 4564 mt 
(6) s
6269 4419 mt 6269 4328 L
6236 4564 mt 
(7) s
7172 4419 mt 7172 4328 L
7139 4564 mt 
(8) s
8075 4419 mt 8075 4328 L
8042 4564 mt 
(9) s
8979 4419 mt 8979 4328 L
8913 4564 mt 
(10) s
 397 4419 mt  487 4419 L
 296 4463 mt 
(0) s
 397 3984 mt  487 3984 L
 196 4028 mt 
(0.1) s
 397 3549 mt  487 3549 L
 196 3593 mt 
(0.2) s
 397 3114 mt  487 3114 L
 196 3158 mt 
(0.3) s
 397 2680 mt  487 2680 L
 196 2724 mt 
(0.4) s
 397 2245 mt  487 2245 L
 196 2289 mt 
(0.5) s
 397 1810 mt  487 1810 L
 196 1854 mt 
(0.6) s
 397 1376 mt  487 1376 L
 196 1420 mt 
(0.7) s
 397  941 mt  487  941 L
 196  985 mt 
(0.8) s
 397  506 mt  487  506 L
 196  550 mt 
(0.9) s
 397   72 mt  487   72 L
 296  116 mt 
(1) s
gs 397 72 9035 4348 rc
/c8 { 0.000000 0.750000 1.000000 sr} bdef
c8
0 3952 723 0 0 -3952 487 4419 4 MP
PP
/c9 { 0.000000 0.000000 1.000000 sr} bdef
c9
-723 0 0 3952 723 0 0 -3952 487 4419 5 MP stroke
c8
0 2070 723 0 0 -2070 1390 4419 4 MP
PP
c9
-723 0 0 2070 723 0 0 -2070 1390 4419 5 MP stroke
c8
0 1409 722 0 0 -1409 2294 4419 4 MP
PP
c9
-722 0 0 1409 722 0 0 -1409 2294 4419 5 MP stroke
c8
0 1052 723 0 0 -1052 3197 4419 4 MP
PP
c9
-723 0 0 1052 723 0 0 -1052 3197 4419 5 MP stroke
c8
0 844 723 0 0 -844 4100 4419 4 MP
PP
c9
-723 0 0 844 723 0 0 -844 4100 4419 5 MP stroke
c8
0 726 723 0 0 -726 5004 4419 4 MP
PP
c9
-723 0 0 726 723 0 0 -726 5004 4419 5 MP stroke
c8
0 600 723 0 0 -600 5907 4419 4 MP
PP
c9
-723 0 0 600 723 0 0 -600 5907 4419 5 MP stroke
c8
0 535 722 0 0 -535 6811 4419 4 MP
PP
c9
-722 0 0 535 722 0 0 -535 6811 4419 5 MP stroke
c8
0 431 723 0 0 -431 7714 4419 4 MP
PP
c9
-723 0 0 431 723 0 0 -431 7714 4419 5 MP stroke
c8
0 396 723 0 0 -396 8617 4419 4 MP
PP
c9
-723 0 0 396 723 0 0 -396 8617 4419 5 MP stroke
0 sg
9034 0 397 4419 2 MP stroke
16.8 w
/c10 { 1.000000 0.000000 0.000000 sr} bdef
c10
904 -174 903 304 903 -609 904 -86 903 -305 904 174 903 826 903 87 
904 -478 848 2723 10 MP stroke
/c11 { 0.000000 1.000000 0.000000 sr} bdef
c11
904 -31 903 -13 903 -65 904 13 903 44 904 130 903 161 903 -78 
904 -300 848 2875 10 MP stroke
c9
904 0 903 0 903 0 904 0 903 0 904 0 903 0 903 0 
904 0 848 2680 10 MP stroke
gr

16.8 w
c9
0 sg
4650 4707 mt 
(Iteration k) s
 114 3011 mt  -90 rotate
(Spannung in V , Gain Wert K) s
90 rotate
 380 4462 mt 
( ) s
9415  114 mt 
( ) s
6 w
1 sg
0 626 1673 0 0 -626 7699 758 4 MP
PP
-1673 0 0 626 1673 0 0 -626 7699 758 5 MP stroke
4 w
DO
SO
6 w
0 sg
7699  132 mt 9372  132 L
7699  758 mt 9372  758 L
9372  758 mt 9372  132 L
7699  758 mt 7699  132 L
7699  758 mt 9372  758 L
7699  758 mt 7699  132 L
7699  132 mt 9372  132 L
7699  758 mt 9372  758 L
9372  758 mt 9372  132 L
7699  758 mt 7699  132 L
8164  266 mt 
(K: Kalman Gain Wert) s
gs 7699 132 1674 627 rc
c8
-358 0 0 109 358 0 0 -109 7770 278 5 MP
PP
c9
0 0 -358 0 0 109 358 0 0 -109 7770 278 6 MP stroke
gr

c9
0 sg
8164  414 mt 
(z: gemessenes Signal) s
gs 7699 132 1674 627 rc
16.8 w
c10
358 0 7770 371 2 MP stroke
gr

16.8 w
c10
0 sg
8164  561 mt 
(x: gefiltertes Signal) s
gs 7699 132 1674 627 rc
c11
358 0 7770 518 2 MP stroke
gr

c11
0 sg
8164  709 mt 
(reales Signal) s
gs 7699 132 1674 627 rc
c9
358 0 7770 665 2 MP stroke
6 w
gr

6 w
c9

end %%Color Dict

eplot
%%EndObject

epage
end

showpage

%%Trailer
%%EOF
