%!PS-Adobe-3.0 EPSF-3.0
%%Creator: MATLAB, The Mathworks, Inc. Version 7.8.0.347 (R2009a). Operating System: Microsoft Windows Vista.
%%Title: C:\Eclipse\GitRepos\gps_energy_hardware\GPS_Energy_Hardware\pics\kalman_gyrox10_Rreal.eps
%%CreationDate: 06/30/2013  12:27:31
%%DocumentNeededFonts: Helvetica
%%DocumentProcessColors: Cyan Magenta Yellow Black
%%LanguageLevel: 2
%%Pages: 1
%%BoundingBox:    -7   239   604   601
%%EndComments

%%BeginProlog
% MathWorks dictionary
/MathWorks 160 dict begin
% definition operators
/bdef {bind def} bind def
/ldef {load def} bind def
/xdef {exch def} bdef
/xstore {exch store} bdef
% operator abbreviations
/c  /clip ldef
/cc /concat ldef
/cp /closepath ldef
/gr /grestore ldef
/gs /gsave ldef
/mt /moveto ldef
/np /newpath ldef
/cm /currentmatrix ldef
/sm /setmatrix ldef
/rm /rmoveto ldef
/rl /rlineto ldef
/s {show newpath} bdef
/sc {setcmykcolor} bdef
/sr /setrgbcolor ldef
/sg /setgray ldef
/w /setlinewidth ldef
/j /setlinejoin ldef
/cap /setlinecap ldef
/rc {rectclip} bdef
/rf {rectfill} bdef
% page state control
/pgsv () def
/bpage {/pgsv save def} bdef
/epage {pgsv restore} bdef
/bplot /gsave ldef
/eplot {stroke grestore} bdef
% orientation switch
/portraitMode 0 def /landscapeMode 1 def /rotateMode 2 def
% coordinate system mappings
/dpi2point 0 def
% font control
/FontSize 0 def
/FMS {/FontSize xstore findfont [FontSize 0 0 FontSize neg 0 0]
  makefont setfont} bdef
/ISOLatin1Encoding where {pop /WindowsLatin1Encoding 256 array bdef
ISOLatin1Encoding WindowsLatin1Encoding copy pop
/.notdef/.notdef/quotesinglbase/florin/quotedblbase/ellipsis/dagger
/daggerdbl/circumflex/perthousand/Scaron/guilsinglleft/OE/.notdef/.notdef
/.notdef/.notdef/quoteleft/quoteright/quotedblleft/quotedblright/bullet
/endash/emdash/tilde/trademark/scaron/guilsinglright/oe/.notdef/.notdef
/Ydieresis WindowsLatin1Encoding 128 32 getinterval astore pop}
{/WindowsLatin1Encoding StandardEncoding bdef} ifelse
/reencode {exch dup where {pop load} {pop StandardEncoding} ifelse
  exch dup 3 1 roll findfont dup length dict begin
  { 1 index /FID ne {def}{pop pop} ifelse } forall
  /Encoding exch def currentdict end definefont pop} bdef
/isroman {findfont /CharStrings get /Agrave known} bdef
/FMSR {3 1 roll 1 index dup isroman {reencode} {pop pop} ifelse
  exch FMS} bdef
/csm {1 dpi2point div -1 dpi2point div scale neg translate
 dup landscapeMode eq {pop -90 rotate}
  {rotateMode eq {90 rotate} if} ifelse} bdef
% line types: solid, dotted, dashed, dotdash
/SO { [] 0 setdash } bdef
/DO { [.5 dpi2point mul 4 dpi2point mul] 0 setdash } bdef
/DA { [6 dpi2point mul] 0 setdash } bdef
/DD { [.5 dpi2point mul 4 dpi2point mul 6 dpi2point mul 4
  dpi2point mul] 0 setdash } bdef
% macros for lines and objects
/L {lineto stroke} bdef
/MP {3 1 roll moveto 1 sub {rlineto} repeat} bdef
/AP {{rlineto} repeat} bdef
/PDlw -1 def
/W {/PDlw currentlinewidth def setlinewidth} def
/PP {closepath eofill} bdef
/DP {closepath stroke} bdef
/MR {4 -2 roll moveto dup  0 exch rlineto exch 0 rlineto
  neg 0 exch rlineto closepath} bdef
/FR {MR stroke} bdef
/PR {MR fill} bdef
/L1i {{currentfile picstr readhexstring pop} image} bdef
/tMatrix matrix def
/MakeOval {newpath tMatrix currentmatrix pop translate scale
0 0 1 0 360 arc tMatrix setmatrix} bdef
/FO {MakeOval stroke} bdef
/PO {MakeOval fill} bdef
/PD {currentlinewidth 2 div 0 360 arc fill
   PDlw -1 eq not {PDlw w /PDlw -1 def} if} def
/FA {newpath tMatrix currentmatrix pop translate scale
  0 0 1 5 -2 roll arc tMatrix setmatrix stroke} bdef
/PA {newpath tMatrix currentmatrix pop	translate 0 0 moveto scale
  0 0 1 5 -2 roll arc closepath tMatrix setmatrix fill} bdef
/FAn {newpath tMatrix currentmatrix pop translate scale
  0 0 1 5 -2 roll arcn tMatrix setmatrix stroke} bdef
/PAn {newpath tMatrix currentmatrix pop translate 0 0 moveto scale
  0 0 1 5 -2 roll arcn closepath tMatrix setmatrix fill} bdef
/vradius 0 def /hradius 0 def /lry 0 def
/lrx 0 def /uly 0 def /ulx 0 def /rad 0 def
/MRR {/vradius xdef /hradius xdef /lry xdef /lrx xdef /uly xdef
  /ulx xdef newpath tMatrix currentmatrix pop ulx hradius add uly
  vradius add translate hradius vradius scale 0 0 1 180 270 arc 
  tMatrix setmatrix lrx hradius sub uly vradius add translate
  hradius vradius scale 0 0 1 270 360 arc tMatrix setmatrix
  lrx hradius sub lry vradius sub translate hradius vradius scale
  0 0 1 0 90 arc tMatrix setmatrix ulx hradius add lry vradius sub
  translate hradius vradius scale 0 0 1 90 180 arc tMatrix setmatrix
  closepath} bdef
/FRR {MRR stroke } bdef
/PRR {MRR fill } bdef
/MlrRR {/lry xdef /lrx xdef /uly xdef /ulx xdef /rad lry uly sub 2 div def
  newpath tMatrix currentmatrix pop ulx rad add uly rad add translate
  rad rad scale 0 0 1 90 270 arc tMatrix setmatrix lrx rad sub lry rad
  sub translate rad rad scale 0 0 1 270 90 arc tMatrix setmatrix
  closepath} bdef
/FlrRR {MlrRR stroke } bdef
/PlrRR {MlrRR fill } bdef
/MtbRR {/lry xdef /lrx xdef /uly xdef /ulx xdef /rad lrx ulx sub 2 div def
  newpath tMatrix currentmatrix pop ulx rad add uly rad add translate
  rad rad scale 0 0 1 180 360 arc tMatrix setmatrix lrx rad sub lry rad
  sub translate rad rad scale 0 0 1 0 180 arc tMatrix setmatrix
  closepath} bdef
/FtbRR {MtbRR stroke } bdef
/PtbRR {MtbRR fill } bdef
/stri 6 array def /dtri 6 array def
/smat 6 array def /dmat 6 array def
/tmat1 6 array def /tmat2 6 array def /dif 3 array def
/asub {/ind2 exch def /ind1 exch def dup dup
  ind1 get exch ind2 get sub exch } bdef
/tri_to_matrix {
  2 0 asub 3 1 asub 4 0 asub 5 1 asub
  dup 0 get exch 1 get 7 -1 roll astore } bdef
/compute_transform {
  dmat dtri tri_to_matrix tmat1 invertmatrix 
  smat stri tri_to_matrix tmat2 concatmatrix } bdef
/ds {stri astore pop} bdef
/dt {dtri astore pop} bdef
/db {2 copy /cols xdef /rows xdef mul dup 3 mul string
  currentfile 
  3 index 0 eq {/ASCIIHexDecode filter}
  {/ASCII85Decode filter 3 index 2 eq {/RunLengthDecode filter} if }
  ifelse exch readstring pop
  dup 0 3 index getinterval /rbmap xdef
  dup 2 index dup getinterval /gbmap xdef
  1 index dup 2 mul exch getinterval /bbmap xdef pop pop}bdef
/it {gs np dtri aload pop moveto lineto lineto cp c
  cols rows 8 compute_transform 
  rbmap gbmap bbmap true 3 colorimage gr}bdef
/il {newpath moveto lineto stroke}bdef
currentdict end def
%%EndProlog

%%BeginSetup
MathWorks begin

0 cap

end
%%EndSetup

%%Page: 1 1
%%BeginPageSetup
%%PageBoundingBox:    -7   239   604   601
MathWorks begin
bpage
%%EndPageSetup

%%BeginObject: obj1
bplot

/dpi2point 12 def
portraitMode -0084 7212 csm

    0     0  7332  4340 rc
87 dict begin %Colortable dictionary
/c0 { 0.000000 0.000000 0.000000 sr} bdef
/c1 { 1.000000 1.000000 1.000000 sr} bdef
/c2 { 0.900000 0.000000 0.000000 sr} bdef
/c3 { 0.000000 0.820000 0.000000 sr} bdef
/c4 { 0.000000 0.000000 0.800000 sr} bdef
/c5 { 0.910000 0.820000 0.320000 sr} bdef
/c6 { 1.000000 0.260000 0.820000 sr} bdef
/c7 { 0.000000 0.820000 0.820000 sr} bdef
c0
1 j
1 sg
   0    0 7333 4341 rf
6 w
0 3865 6599 0 0 -3865 628 3947 4 MP
PP
-6599 0 0 3865 6599 0 0 -3865 628 3947 5 MP stroke
4 w
DO
SO
6 w
0 sg
 628 3947 mt 7227 3947 L
 628 3947 mt  628   82 L
 628 3947 mt  628 3881 L
%%IncludeResource: font Helvetica
/Helvetica /WindowsLatin1Encoding 120 FMSR

 595 4092 mt 
(0) s
1287 3947 mt 1287 3881 L
1254 4092 mt 
(1) s
1947 3947 mt 1947 3881 L
1914 4092 mt 
(2) s
2607 3947 mt 2607 3881 L
2574 4092 mt 
(3) s
3267 3947 mt 3267 3881 L
3234 4092 mt 
(4) s
3927 3947 mt 3927 3881 L
3894 4092 mt 
(5) s
4587 3947 mt 4587 3881 L
4554 4092 mt 
(6) s
5247 3947 mt 5247 3881 L
5214 4092 mt 
(7) s
5907 3947 mt 5907 3881 L
5874 4092 mt 
(8) s
6567 3947 mt 6567 3881 L
6534 4092 mt 
(9) s
7227 3947 mt 7227 3881 L
7161 4092 mt 
(10) s
 628 3947 mt  693 3947 L
 290 3991 mt 
(-0.15) s
 628 3303 mt  693 3303 L
 290 3347 mt 
(-0.11) s
 628 2659 mt  693 2659 L
 290 2703 mt 
(-0.08) s
 628 2015 mt  693 2015 L
 290 2059 mt 
(-0.04) s
 628 1371 mt  693 1371 L
 527 1415 mt 
(0) s
 628  727 mt  693  727 L
 360  771 mt 
(0.04) s
 628   83 mt  693   83 L
 360  127 mt 
(0.08) s
gs 628 83 6600 3865 rc
/c8 { 0.000000 0.750000 1.000000 sr} bdef
c8
0 2 330 0 0 -2 1122 1371 4 MP
PP
/c9 { 0.000000 0.000000 1.000000 sr} bdef
c9
-330 0 0 2 330 0 0 -2 1122 1371 5 MP stroke
c8
0 2 330 0 0 -2 1782 1371 4 MP
PP
c9
-330 0 0 2 330 0 0 -2 1782 1371 5 MP stroke
c8
0 2 330 0 0 -2 2442 1371 4 MP
PP
c9
-330 0 0 2 330 0 0 -2 2442 1371 5 MP stroke
c8
0 2 330 0 0 -2 3102 1371 4 MP
PP
c9
-330 0 0 2 330 0 0 -2 3102 1371 5 MP stroke
c8
0 2 330 0 0 -2 3762 1371 4 MP
PP
c9
-330 0 0 2 330 0 0 -2 3762 1371 5 MP stroke
c8
0 2 330 0 0 -2 4422 1371 4 MP
PP
c9
-330 0 0 2 330 0 0 -2 4422 1371 5 MP stroke
c8
0 2 330 0 0 -2 5082 1371 4 MP
PP
c9
-330 0 0 2 330 0 0 -2 5082 1371 5 MP stroke
c8
0 2 330 0 0 -2 5742 1371 4 MP
PP
c9
-330 0 0 2 330 0 0 -2 5742 1371 5 MP stroke
c8
0 2 330 0 0 -2 6402 1371 4 MP
PP
c9
-330 0 0 2 330 0 0 -2 6402 1371 5 MP stroke
c8
0 2 329 0 0 -2 7062 1371 4 MP
PP
c9
-329 0 0 2 329 0 0 -2 7062 1371 5 MP stroke
0 sg
6599 0 628 1371 2 MP stroke
/c10 { 1.000000 0.000000 0.000000 sr} bdef
c10
660 0 660 1674 660 -1417 660 1804 660 -1031 660 129 660 902 660 -387 
660 -2834 1287 3625 10 MP stroke
24 w
/c11 { 0.000000 1.000000 0.000000 sr} bdef
c11
660 13 660 14 660 -7 660 11 660 -13 660 1 660 -1 660 -14 
660 -9 1287 1403 10 MP stroke
6 w
c9
6599 0 628 1371 2 MP stroke
gr

c9
0 sg
3666 4235 mt 
(Zeit in ms) s
 208 2768 mt  -90 rotate
(Winkelgeschwindigkeit in \260/s) s
90 rotate
 611 3990 mt 
( ) s
7211  125 mt 
( ) s
1 sg
0 626 1501 0 0 -626 5667 769 4 MP
PP
-1501 0 0 626 1501 0 0 -626 5667 769 5 MP stroke
4 w
DO
SO
6 w
0 sg
5667  143 mt 7168  143 L
5667  769 mt 7168  769 L
7168  769 mt 7168  143 L
5667  769 mt 5667  143 L
5667  769 mt 7168  769 L
5667  769 mt 5667  143 L
5667  143 mt 7168  143 L
5667  769 mt 7168  769 L
7168  769 mt 7168  143 L
5667  769 mt 5667  143 L
6132  277 mt 
(Kk: Kalman Gain) s
gs 5667 143 1502 627 rc
c8
-357 0 0 109 357 0 0 -109 5738 289 5 MP
PP
c9
0 0 -357 0 0 109 357 0 0 -109 5738 289 6 MP stroke
gr

c9
0 sg
6132  425 mt 
(zk: Messwerte) s
gs 5667 143 1502 627 rc
c10
357 0 5738 382 2 MP stroke
gr

c10
0 sg
6132  572 mt 
(xk: gefilterte Werte) s
gs 5667 143 1502 627 rc
24 w
c11
357 0 5738 529 2 MP stroke
gr

24 w
c11
0 sg
6132  720 mt 
(reales Signal) s
gs 5667 143 1502 627 rc
6 w
c9
357 0 5738 676 2 MP stroke
gr

6 w
c9

end %%Color Dict

eplot
%%EndObject

epage
end

showpage

%%Trailer
%%EOF
