%!PS-Adobe-3.0 EPSF-3.0
%%Creator: MATLAB, The Mathworks, Inc. Version 7.8.0.347 (R2009a). Operating System: Microsoft Windows Vista.
%%Title: C:\Users\t510\Studium FH [Sync]\Semester VI\Schwerpunktseminar\Messungen\Kalman Beispiel Gyro X 1000 werte\kalman_gyrox10_R0_1.eps
%%CreationDate: 06/29/2013  22:42:47
%%DocumentNeededFonts: Helvetica
%%DocumentProcessColors: Cyan Magenta Yellow Black
%%LanguageLevel: 2
%%Pages: 1
%%BoundingBox:    -6   248   602   594
%%EndComments

%%BeginProlog
% MathWorks dictionary
/MathWorks 160 dict begin
% definition operators
/bdef {bind def} bind def
/ldef {load def} bind def
/xdef {exch def} bdef
/xstore {exch store} bdef
% operator abbreviations
/c  /clip ldef
/cc /concat ldef
/cp /closepath ldef
/gr /grestore ldef
/gs /gsave ldef
/mt /moveto ldef
/np /newpath ldef
/cm /currentmatrix ldef
/sm /setmatrix ldef
/rm /rmoveto ldef
/rl /rlineto ldef
/s {show newpath} bdef
/sc {setcmykcolor} bdef
/sr /setrgbcolor ldef
/sg /setgray ldef
/w /setlinewidth ldef
/j /setlinejoin ldef
/cap /setlinecap ldef
/rc {rectclip} bdef
/rf {rectfill} bdef
% page state control
/pgsv () def
/bpage {/pgsv save def} bdef
/epage {pgsv restore} bdef
/bplot /gsave ldef
/eplot {stroke grestore} bdef
% orientation switch
/portraitMode 0 def /landscapeMode 1 def /rotateMode 2 def
% coordinate system mappings
/dpi2point 0 def
% font control
/FontSize 0 def
/FMS {/FontSize xstore findfont [FontSize 0 0 FontSize neg 0 0]
  makefont setfont} bdef
/ISOLatin1Encoding where {pop /WindowsLatin1Encoding 256 array bdef
ISOLatin1Encoding WindowsLatin1Encoding copy pop
/.notdef/.notdef/quotesinglbase/florin/quotedblbase/ellipsis/dagger
/daggerdbl/circumflex/perthousand/Scaron/guilsinglleft/OE/.notdef/.notdef
/.notdef/.notdef/quoteleft/quoteright/quotedblleft/quotedblright/bullet
/endash/emdash/tilde/trademark/scaron/guilsinglright/oe/.notdef/.notdef
/Ydieresis WindowsLatin1Encoding 128 32 getinterval astore pop}
{/WindowsLatin1Encoding StandardEncoding bdef} ifelse
/reencode {exch dup where {pop load} {pop StandardEncoding} ifelse
  exch dup 3 1 roll findfont dup length dict begin
  { 1 index /FID ne {def}{pop pop} ifelse } forall
  /Encoding exch def currentdict end definefont pop} bdef
/isroman {findfont /CharStrings get /Agrave known} bdef
/FMSR {3 1 roll 1 index dup isroman {reencode} {pop pop} ifelse
  exch FMS} bdef
/csm {1 dpi2point div -1 dpi2point div scale neg translate
 dup landscapeMode eq {pop -90 rotate}
  {rotateMode eq {90 rotate} if} ifelse} bdef
% line types: solid, dotted, dashed, dotdash
/SO { [] 0 setdash } bdef
/DO { [.5 dpi2point mul 4 dpi2point mul] 0 setdash } bdef
/DA { [6 dpi2point mul] 0 setdash } bdef
/DD { [.5 dpi2point mul 4 dpi2point mul 6 dpi2point mul 4
  dpi2point mul] 0 setdash } bdef
% macros for lines and objects
/L {lineto stroke} bdef
/MP {3 1 roll moveto 1 sub {rlineto} repeat} bdef
/AP {{rlineto} repeat} bdef
/PDlw -1 def
/W {/PDlw currentlinewidth def setlinewidth} def
/PP {closepath eofill} bdef
/DP {closepath stroke} bdef
/MR {4 -2 roll moveto dup  0 exch rlineto exch 0 rlineto
  neg 0 exch rlineto closepath} bdef
/FR {MR stroke} bdef
/PR {MR fill} bdef
/L1i {{currentfile picstr readhexstring pop} image} bdef
/tMatrix matrix def
/MakeOval {newpath tMatrix currentmatrix pop translate scale
0 0 1 0 360 arc tMatrix setmatrix} bdef
/FO {MakeOval stroke} bdef
/PO {MakeOval fill} bdef
/PD {currentlinewidth 2 div 0 360 arc fill
   PDlw -1 eq not {PDlw w /PDlw -1 def} if} def
/FA {newpath tMatrix currentmatrix pop translate scale
  0 0 1 5 -2 roll arc tMatrix setmatrix stroke} bdef
/PA {newpath tMatrix currentmatrix pop	translate 0 0 moveto scale
  0 0 1 5 -2 roll arc closepath tMatrix setmatrix fill} bdef
/FAn {newpath tMatrix currentmatrix pop translate scale
  0 0 1 5 -2 roll arcn tMatrix setmatrix stroke} bdef
/PAn {newpath tMatrix currentmatrix pop translate 0 0 moveto scale
  0 0 1 5 -2 roll arcn closepath tMatrix setmatrix fill} bdef
/vradius 0 def /hradius 0 def /lry 0 def
/lrx 0 def /uly 0 def /ulx 0 def /rad 0 def
/MRR {/vradius xdef /hradius xdef /lry xdef /lrx xdef /uly xdef
  /ulx xdef newpath tMatrix currentmatrix pop ulx hradius add uly
  vradius add translate hradius vradius scale 0 0 1 180 270 arc 
  tMatrix setmatrix lrx hradius sub uly vradius add translate
  hradius vradius scale 0 0 1 270 360 arc tMatrix setmatrix
  lrx hradius sub lry vradius sub translate hradius vradius scale
  0 0 1 0 90 arc tMatrix setmatrix ulx hradius add lry vradius sub
  translate hradius vradius scale 0 0 1 90 180 arc tMatrix setmatrix
  closepath} bdef
/FRR {MRR stroke } bdef
/PRR {MRR fill } bdef
/MlrRR {/lry xdef /lrx xdef /uly xdef /ulx xdef /rad lry uly sub 2 div def
  newpath tMatrix currentmatrix pop ulx rad add uly rad add translate
  rad rad scale 0 0 1 90 270 arc tMatrix setmatrix lrx rad sub lry rad
  sub translate rad rad scale 0 0 1 270 90 arc tMatrix setmatrix
  closepath} bdef
/FlrRR {MlrRR stroke } bdef
/PlrRR {MlrRR fill } bdef
/MtbRR {/lry xdef /lrx xdef /uly xdef /ulx xdef /rad lrx ulx sub 2 div def
  newpath tMatrix currentmatrix pop ulx rad add uly rad add translate
  rad rad scale 0 0 1 180 360 arc tMatrix setmatrix lrx rad sub lry rad
  sub translate rad rad scale 0 0 1 0 180 arc tMatrix setmatrix
  closepath} bdef
/FtbRR {MtbRR stroke } bdef
/PtbRR {MtbRR fill } bdef
/stri 6 array def /dtri 6 array def
/smat 6 array def /dmat 6 array def
/tmat1 6 array def /tmat2 6 array def /dif 3 array def
/asub {/ind2 exch def /ind1 exch def dup dup
  ind1 get exch ind2 get sub exch } bdef
/tri_to_matrix {
  2 0 asub 3 1 asub 4 0 asub 5 1 asub
  dup 0 get exch 1 get 7 -1 roll astore } bdef
/compute_transform {
  dmat dtri tri_to_matrix tmat1 invertmatrix 
  smat stri tri_to_matrix tmat2 concatmatrix } bdef
/ds {stri astore pop} bdef
/dt {dtri astore pop} bdef
/db {2 copy /cols xdef /rows xdef mul dup 3 mul string
  currentfile 
  3 index 0 eq {/ASCIIHexDecode filter}
  {/ASCII85Decode filter 3 index 2 eq {/RunLengthDecode filter} if }
  ifelse exch readstring pop
  dup 0 3 index getinterval /rbmap xdef
  dup 2 index dup getinterval /gbmap xdef
  1 index dup 2 mul exch getinterval /bbmap xdef pop pop}bdef
/it {gs np dtri aload pop moveto lineto lineto cp c
  cols rows 8 compute_transform 
  rbmap gbmap bbmap true 3 colorimage gr}bdef
/il {newpath moveto lineto stroke}bdef
currentdict end def
%%EndProlog

%%BeginSetup
MathWorks begin

0 cap

end
%%EndSetup

%%Page: 1 1
%%BeginPageSetup
%%PageBoundingBox:    -6   248   602   594
MathWorks begin
bpage
%%EndPageSetup

%%BeginObject: obj1
bplot

/dpi2point 12 def
portraitMode -0072 7128 csm

    0     0  7305  4151 rc
87 dict begin %Colortable dictionary
/c0 { 0.000000 0.000000 0.000000 sr} bdef
/c1 { 1.000000 1.000000 1.000000 sr} bdef
/c2 { 0.900000 0.000000 0.000000 sr} bdef
/c3 { 0.000000 0.820000 0.000000 sr} bdef
/c4 { 0.000000 0.000000 0.800000 sr} bdef
/c5 { 0.910000 0.820000 0.320000 sr} bdef
/c6 { 1.000000 0.260000 0.820000 sr} bdef
/c7 { 0.000000 0.820000 0.820000 sr} bdef
c0
1 j
1 sg
   0    0 7306 4152 rf
6 w
0 3737 6699 0 0 -3737 534 3809 4 MP
PP
-6699 0 0 3737 6699 0 0 -3737 534 3809 5 MP stroke
4 w
DO
SO
6 w
0 sg
 534 3809 mt 7233 3809 L
 534 3809 mt  534   72 L
 534 3809 mt  534 3742 L
%%IncludeResource: font Helvetica
/Helvetica /WindowsLatin1Encoding 120 FMSR

 501 3954 mt 
(0) s
1203 3809 mt 1203 3742 L
1170 3954 mt 
(1) s
1873 3809 mt 1873 3742 L
1840 3954 mt 
(2) s
2543 3809 mt 2543 3742 L
2510 3954 mt 
(3) s
3213 3809 mt 3213 3742 L
3180 3954 mt 
(4) s
3883 3809 mt 3883 3742 L
3850 3954 mt 
(5) s
4553 3809 mt 4553 3742 L
4520 3954 mt 
(6) s
5223 3809 mt 5223 3742 L
5190 3954 mt 
(7) s
5893 3809 mt 5893 3742 L
5860 3954 mt 
(8) s
6563 3809 mt 6563 3742 L
6530 3954 mt 
(9) s
7233 3809 mt 7233 3742 L
7167 3954 mt 
(10) s
 534 3809 mt  600 3809 L
 196 3853 mt 
(-0.15) s
 534 3186 mt  600 3186 L
 196 3230 mt 
(-0.11) s
 534 2563 mt  600 2563 L
 196 2607 mt 
(-0.08) s
 534 1940 mt  600 1940 L
 196 1984 mt 
(-0.04) s
 534 1317 mt  600 1317 L
 433 1361 mt 
(0) s
 534  694 mt  600  694 L
 266  738 mt 
(0.04) s
 534   72 mt  600   72 L
 266  116 mt 
(0.08) s
gs 534 72 6700 3738 rc
/c8 { 0.000000 0.750000 1.000000 sr} bdef
c8
0 113 536 0 0 -113 935 1317 4 MP
PP
/c9 { 0.000000 0.000000 1.000000 sr} bdef
c9
-536 0 0 113 536 0 0 -113 935 1317 5 MP stroke
c8
0 59 536 0 0 -59 1605 1317 4 MP
PP
c9
-536 0 0 59 536 0 0 -59 1605 1317 5 MP stroke
c8
0 40 536 0 0 -40 2275 1317 4 MP
PP
c9
-536 0 0 40 536 0 0 -40 2275 1317 5 MP stroke
c8
0 30 536 0 0 -30 2945 1317 4 MP
PP
c9
-536 0 0 30 536 0 0 -30 2945 1317 5 MP stroke
c8
0 24 536 0 0 -24 3615 1317 4 MP
PP
c9
-536 0 0 24 536 0 0 -24 3615 1317 5 MP stroke
c8
0 20 536 0 0 -20 4285 1317 4 MP
PP
c9
-536 0 0 20 536 0 0 -20 4285 1317 5 MP stroke
c8
0 17 536 0 0 -17 4955 1317 4 MP
PP
c9
-536 0 0 17 536 0 0 -17 4955 1317 5 MP stroke
c8
0 15 536 0 0 -15 5625 1317 4 MP
PP
c9
-536 0 0 15 536 0 0 -15 5625 1317 5 MP stroke
c8
0 14 536 0 0 -14 6295 1317 4 MP
PP
c9
-536 0 0 14 536 0 0 -14 6295 1317 5 MP stroke
c8
0 12 535 0 0 -12 6965 1317 4 MP
PP
c9
-535 0 0 12 535 0 0 -12 6965 1317 5 MP stroke
0 sg
6699 0 534 1317 2 MP stroke
/c10 { 1.000000 0.000000 0.000000 sr} bdef
c10
670 0 670 1619 670 -1370 670 1744 670 -996 670 124 670 872 670 -374 
670 -2740 1203 3497 10 MP stroke
24 w
/c11 { 0.000000 1.000000 0.000000 sr} bdef
c11
670 93 670 117 670 -79 670 120 670 -176 670 -17 670 -69 670 -550 
670 -1211 1203 3299 10 MP stroke
6 w
c9
6699 0 534 1317 2 MP stroke
gr

c9
0 sg
3622 4097 mt 
(Zeit in ms) s
 114 2693 mt  -90 rotate
(Winkelgeschwindigkeit in \260/s) s
90 rotate
 517 3852 mt 
( ) s
7217  114 mt 
( ) s
1 sg
0 626 1501 0 0 -626 5673 758 4 MP
PP
-1501 0 0 626 1501 0 0 -626 5673 758 5 MP stroke
4 w
DO
SO
6 w
0 sg
5673  132 mt 7174  132 L
5673  758 mt 7174  758 L
7174  758 mt 7174  132 L
5673  758 mt 5673  132 L
5673  758 mt 7174  758 L
5673  758 mt 5673  132 L
5673  132 mt 7174  132 L
5673  758 mt 7174  758 L
7174  758 mt 7174  132 L
5673  758 mt 5673  132 L
6138  266 mt 
(Kk: Kalman Gain) s
gs 5673 132 1502 627 rc
c8
-357 0 0 109 357 0 0 -109 5744 278 5 MP
PP
c9
0 0 -357 0 0 109 357 0 0 -109 5744 278 6 MP stroke
gr

c9
0 sg
6138  414 mt 
(zk: Messwerte) s
gs 5673 132 1502 627 rc
c10
357 0 5744 371 2 MP stroke
gr

c10
0 sg
6138  561 mt 
(xk: gefilterte Werte) s
gs 5673 132 1502 627 rc
24 w
c11
357 0 5744 518 2 MP stroke
gr

24 w
c11
0 sg
6138  709 mt 
(reales Signal) s
gs 5673 132 1502 627 rc
6 w
c9
357 0 5744 665 2 MP stroke
gr

6 w
c9

end %%Color Dict

eplot
%%EndObject

epage
end

showpage

%%Trailer
%%EOF
