%!PS-Adobe-3.0 EPSF-3.0
%%Creator: MATLAB, The Mathworks, Inc. Version 7.8.0.347 (R2009a). Operating System: Microsoft Windows Vista.
%%Title: C:\Eclipse\GitRepos\gps_energy_hardware\GPS_Energy_Hardware\pics\measure_imu_vgl_complement.eps
%%CreationDate: 06/27/2013  19:04:29
%%DocumentNeededFonts: Helvetica
%%DocumentProcessColors: Cyan Magenta Yellow Black
%%LanguageLevel: 2
%%Pages: 1
%%BoundingBox:    15   253   578   589
%%EndComments

%%BeginProlog
% MathWorks dictionary
/MathWorks 160 dict begin
% definition operators
/bdef {bind def} bind def
/ldef {load def} bind def
/xdef {exch def} bdef
/xstore {exch store} bdef
% operator abbreviations
/c  /clip ldef
/cc /concat ldef
/cp /closepath ldef
/gr /grestore ldef
/gs /gsave ldef
/mt /moveto ldef
/np /newpath ldef
/cm /currentmatrix ldef
/sm /setmatrix ldef
/rm /rmoveto ldef
/rl /rlineto ldef
/s {show newpath} bdef
/sc {setcmykcolor} bdef
/sr /setrgbcolor ldef
/sg /setgray ldef
/w /setlinewidth ldef
/j /setlinejoin ldef
/cap /setlinecap ldef
/rc {rectclip} bdef
/rf {rectfill} bdef
% page state control
/pgsv () def
/bpage {/pgsv save def} bdef
/epage {pgsv restore} bdef
/bplot /gsave ldef
/eplot {stroke grestore} bdef
% orientation switch
/portraitMode 0 def /landscapeMode 1 def /rotateMode 2 def
% coordinate system mappings
/dpi2point 0 def
% font control
/FontSize 0 def
/FMS {/FontSize xstore findfont [FontSize 0 0 FontSize neg 0 0]
  makefont setfont} bdef
/ISOLatin1Encoding where {pop /WindowsLatin1Encoding 256 array bdef
ISOLatin1Encoding WindowsLatin1Encoding copy pop
/.notdef/.notdef/quotesinglbase/florin/quotedblbase/ellipsis/dagger
/daggerdbl/circumflex/perthousand/Scaron/guilsinglleft/OE/.notdef/.notdef
/.notdef/.notdef/quoteleft/quoteright/quotedblleft/quotedblright/bullet
/endash/emdash/tilde/trademark/scaron/guilsinglright/oe/.notdef/.notdef
/Ydieresis WindowsLatin1Encoding 128 32 getinterval astore pop}
{/WindowsLatin1Encoding StandardEncoding bdef} ifelse
/reencode {exch dup where {pop load} {pop StandardEncoding} ifelse
  exch dup 3 1 roll findfont dup length dict begin
  { 1 index /FID ne {def}{pop pop} ifelse } forall
  /Encoding exch def currentdict end definefont pop} bdef
/isroman {findfont /CharStrings get /Agrave known} bdef
/FMSR {3 1 roll 1 index dup isroman {reencode} {pop pop} ifelse
  exch FMS} bdef
/csm {1 dpi2point div -1 dpi2point div scale neg translate
 dup landscapeMode eq {pop -90 rotate}
  {rotateMode eq {90 rotate} if} ifelse} bdef
% line types: solid, dotted, dashed, dotdash
/SO { [] 0 setdash } bdef
/DO { [.5 dpi2point mul 4 dpi2point mul] 0 setdash } bdef
/DA { [6 dpi2point mul] 0 setdash } bdef
/DD { [.5 dpi2point mul 4 dpi2point mul 6 dpi2point mul 4
  dpi2point mul] 0 setdash } bdef
% macros for lines and objects
/L {lineto stroke} bdef
/MP {3 1 roll moveto 1 sub {rlineto} repeat} bdef
/AP {{rlineto} repeat} bdef
/PDlw -1 def
/W {/PDlw currentlinewidth def setlinewidth} def
/PP {closepath eofill} bdef
/DP {closepath stroke} bdef
/MR {4 -2 roll moveto dup  0 exch rlineto exch 0 rlineto
  neg 0 exch rlineto closepath} bdef
/FR {MR stroke} bdef
/PR {MR fill} bdef
/L1i {{currentfile picstr readhexstring pop} image} bdef
/tMatrix matrix def
/MakeOval {newpath tMatrix currentmatrix pop translate scale
0 0 1 0 360 arc tMatrix setmatrix} bdef
/FO {MakeOval stroke} bdef
/PO {MakeOval fill} bdef
/PD {currentlinewidth 2 div 0 360 arc fill
   PDlw -1 eq not {PDlw w /PDlw -1 def} if} def
/FA {newpath tMatrix currentmatrix pop translate scale
  0 0 1 5 -2 roll arc tMatrix setmatrix stroke} bdef
/PA {newpath tMatrix currentmatrix pop	translate 0 0 moveto scale
  0 0 1 5 -2 roll arc closepath tMatrix setmatrix fill} bdef
/FAn {newpath tMatrix currentmatrix pop translate scale
  0 0 1 5 -2 roll arcn tMatrix setmatrix stroke} bdef
/PAn {newpath tMatrix currentmatrix pop translate 0 0 moveto scale
  0 0 1 5 -2 roll arcn closepath tMatrix setmatrix fill} bdef
/vradius 0 def /hradius 0 def /lry 0 def
/lrx 0 def /uly 0 def /ulx 0 def /rad 0 def
/MRR {/vradius xdef /hradius xdef /lry xdef /lrx xdef /uly xdef
  /ulx xdef newpath tMatrix currentmatrix pop ulx hradius add uly
  vradius add translate hradius vradius scale 0 0 1 180 270 arc 
  tMatrix setmatrix lrx hradius sub uly vradius add translate
  hradius vradius scale 0 0 1 270 360 arc tMatrix setmatrix
  lrx hradius sub lry vradius sub translate hradius vradius scale
  0 0 1 0 90 arc tMatrix setmatrix ulx hradius add lry vradius sub
  translate hradius vradius scale 0 0 1 90 180 arc tMatrix setmatrix
  closepath} bdef
/FRR {MRR stroke } bdef
/PRR {MRR fill } bdef
/MlrRR {/lry xdef /lrx xdef /uly xdef /ulx xdef /rad lry uly sub 2 div def
  newpath tMatrix currentmatrix pop ulx rad add uly rad add translate
  rad rad scale 0 0 1 90 270 arc tMatrix setmatrix lrx rad sub lry rad
  sub translate rad rad scale 0 0 1 270 90 arc tMatrix setmatrix
  closepath} bdef
/FlrRR {MlrRR stroke } bdef
/PlrRR {MlrRR fill } bdef
/MtbRR {/lry xdef /lrx xdef /uly xdef /ulx xdef /rad lrx ulx sub 2 div def
  newpath tMatrix currentmatrix pop ulx rad add uly rad add translate
  rad rad scale 0 0 1 180 360 arc tMatrix setmatrix lrx rad sub lry rad
  sub translate rad rad scale 0 0 1 0 180 arc tMatrix setmatrix
  closepath} bdef
/FtbRR {MtbRR stroke } bdef
/PtbRR {MtbRR fill } bdef
/stri 6 array def /dtri 6 array def
/smat 6 array def /dmat 6 array def
/tmat1 6 array def /tmat2 6 array def /dif 3 array def
/asub {/ind2 exch def /ind1 exch def dup dup
  ind1 get exch ind2 get sub exch } bdef
/tri_to_matrix {
  2 0 asub 3 1 asub 4 0 asub 5 1 asub
  dup 0 get exch 1 get 7 -1 roll astore } bdef
/compute_transform {
  dmat dtri tri_to_matrix tmat1 invertmatrix 
  smat stri tri_to_matrix tmat2 concatmatrix } bdef
/ds {stri astore pop} bdef
/dt {dtri astore pop} bdef
/db {2 copy /cols xdef /rows xdef mul dup 3 mul string
  currentfile 
  3 index 0 eq {/ASCIIHexDecode filter}
  {/ASCII85Decode filter 3 index 2 eq {/RunLengthDecode filter} if }
  ifelse exch readstring pop
  dup 0 3 index getinterval /rbmap xdef
  dup 2 index dup getinterval /gbmap xdef
  1 index dup 2 mul exch getinterval /bbmap xdef pop pop}bdef
/it {gs np dtri aload pop moveto lineto lineto cp c
  cols rows 8 compute_transform 
  rbmap gbmap bbmap true 3 colorimage gr}bdef
/il {newpath moveto lineto stroke}bdef
currentdict end def
%%EndProlog

%%BeginSetup
MathWorks begin

0 cap

end
%%EndSetup

%%Page: 1 1
%%BeginPageSetup
%%PageBoundingBox:    15   253   578   589
MathWorks begin
bpage
%%EndPageSetup

%%BeginObject: obj1
bplot

/dpi2point 12 def
portraitMode 0180 7068 csm

    0     0  6765  4025 rc
86 dict begin %Colortable dictionary
/c0 { 0.000000 0.000000 0.000000 sr} bdef
/c1 { 1.000000 1.000000 1.000000 sr} bdef
/c2 { 0.900000 0.000000 0.000000 sr} bdef
/c3 { 0.000000 0.820000 0.000000 sr} bdef
/c4 { 0.000000 0.000000 0.800000 sr} bdef
/c5 { 0.910000 0.820000 0.320000 sr} bdef
/c6 { 1.000000 0.260000 0.820000 sr} bdef
/c7 { 0.000000 0.820000 0.820000 sr} bdef
c0
1 j
1 sg
   0    0 6766 4026 rf
6 w
0 3632 6149 0 0 -3632 435 3708 4 MP
PP
-6149 0 0 3632 6149 0 0 -3632 435 3708 5 MP stroke
4 w
DO
SO
6 w
0 sg
 435 3708 mt 6584 3708 L
 435 3708 mt  435   76 L
 435 3708 mt  435 3646 L
%%IncludeResource: font Helvetica
/Helvetica /WindowsLatin1Encoding 120 FMSR

 402 3853 mt 
(0) s
1459 3708 mt 1459 3646 L
1393 3853 mt 
(10) s
2484 3708 mt 2484 3646 L
2418 3853 mt 
(20) s
3509 3708 mt 3509 3646 L
3443 3853 mt 
(30) s
4534 3708 mt 4534 3646 L
4468 3853 mt 
(40) s
5559 3708 mt 5559 3646 L
5493 3853 mt 
(50) s
6584 3708 mt 6584 3646 L
6518 3853 mt 
(60) s
 435 3708 mt  496 3708 L
 197 3752 mt 
(-25) s
 435 2981 mt  496 2981 L
 197 3025 mt 
(-20) s
 435 2255 mt  496 2255 L
 197 2299 mt 
(-15) s
 435 1529 mt  496 1529 L
 197 1573 mt 
(-10) s
 435  803 mt  496  803 L
 264  847 mt 
(-5) s
 435   76 mt  496   76 L
 334  120 mt 
(0) s
gs 435 77 6150 3632 rc
13.2 w
/c8 { 0.000000 0.000000 1.000000 sr} bdef
c8
7 5 6 2 6 -3 6 -22 6 -6 6 26 7 -33 6 19 
6 9 6 -8 6 2 6 13 6 -10 7 -29 6 61 6 -54 
6 16 6 -23 6 1 6 16 7 -4 6 -2 6 32 6 -29 
6 -10 6 15 7 24 6 -40 6 18 6 16 6 -29 6 27 
6 -27 7 15 6 3 6 -18 6 15 6 -15 6 15 6 -18 
7 37 6 -23 6 -3 6 -9 6 28 6 -11 7 16 6 -13 
6 -17 6 -5 6 28 6 -6 6 -20 7 44 6 -12 6 -10 
6 24 6 -46 6 14 6 11 7 -32 6 -8 6 -4 6 32 
6 3 6 -26 6 7 7 17 6 37 6 -37 6 2 6 4 
6 19 7 -11 6 14 6 -39 6 19 6 -37 6 22 6 13 
7 -8 6 1 6 41 6 -32 6 -15 6 22 6 -20 7 26 
6 4 6 -67 6 40 6 4 6 1 7 -16 6 22 6 5 
6 -11 6 -43 6 59 6 9 7 2 6 -18 6 -4 6 10 
6 -18 6 -4 6 3 7 15 6 -31 6 29 6 -23 6 -6 
6 7 6 13 7 -1 6 30 6 -48 6 19 6 -14 6 3 
7 -12 6 2 6 7 6 -5 6 24 6 -8 6 15 7 17 
6 -7 6 -33 6 19 6 -21 6 40 6 -3 7 -25 6 23 
6 -27 6 0 6 14 6 -13 7 -3 6 19 6 -23 6 27 
6 -21 6 0 6 -14 7 35 6 -24 6 -8 6 -7 6 22 
6 -6 6 -13 7 12 6 19 6 -28 6 -23 6 62 6 19 
6 -67 7 13 6 15 6 7 6 -22 6 -23 6 38 7 -35 
6 20 6 13 6 -13 6 10 6 -34 6 20 7 0 6 7 
6 -16 6 32 6 -23 6 1 6 -26 7 31 6 10 6 3 
6 -50 6 82 6 -66 7 24 6 27 6 -29 6 37 6 -15 
6 -36 6 48 7 -31 6 20 6 -24 6 32 6 -45 6 3 
6 49 7 -26 6 0 6 10 6 -20 6 4 6 3 6 -12 
7 26 6 0 6 -20 6 19 6 -19 6 -4 7 14 6 -13 
6 6 6 17 6 -13 6 -7 6 10 7 -14 6 11 6 -10 
6 9 6 13 6 -3 6 25 7 -25 6 -19 6 15 6 -9 
6 -4 6 -11 7 18 6 6 6 14 6 -22 6 3 6 2 
6 6 7 -16 6 14 6 -13 6 -10 6 1 6 -20 6 41 
7 -8 6 -4 6 20 6 3 6 -13 6 -13 6 -45 7 41 
6 -7 6 -16 6 10 6 22 6 18 7 -27 6 -10 6 -2 
6 18 6 -13 6 -5 6 2 7 27 6 -20 6 6 6 8 
6 -5 6 -6 6 16 7 -10 6 10 6 -45 6 39 6 -4 
6 17 7 -32 6 4 6 16 6 -11 6 9 6 -16 6 7 
7 17 6 5 6 -18 6 9 6 -32 6 33 6 2 7 -19 
6 1 6 16 6 -4 4745 367 300 MP stroke
6 -15 6 -7 6 10 7 22 6 -14 6 20 6 -35 6 3 
6 28 7 11 6 -30 6 7 6 13 6 -19 6 -3 6 25 
7 -4 6 -5 6 -7 6 16 6 -36 6 23 6 -22 7 6 
6 1 6 16 6 -32 6 28 6 -12 7 9 6 7 6 5 
6 8 6 -49 6 17 6 48 7 -52 6 -22 6 47 6 -18 
6 0 6 0 6 2 7 25 6 -28 6 7 6 -23 6 28 
6 14 7 -38 6 35 6 -9 6 -8 6 -9 6 3 6 9 
7 5 6 -2 6 -9 6 7 6 16 6 -16 6 22 7 -22 
6 -14 6 21 6 16 6 -13 6 8 6 -3 7 -13 6 -41 
6 39 6 3 6 -36 6 24 7 21 6 -15 6 6 6 -7 
6 38 6 -14 6 18 7 -29 6 -16 6 19 6 8 6 0 
6 -39 6 9 7 1 6 19 6 -26 6 12 6 7 6 0 
7 1 6 -26 6 54 6 -28 6 -17 6 12 6 -16 7 26 
6 -31 6 6 6 23 6 19 6 -38 6 14 7 29 6 -40 
6 0 6 15 6 -4 6 27 6 -27 7 -2 6 19 6 -29 
6 12 6 20 6 -23 7 -5 6 6 6 22 6 -23 6 3 
6 -6 6 22 7 -15 6 -4 6 11 6 2 6 -15 6 -16 
6 58 7 -23 6 -14 6 13 6 -25 6 3 6 9 7 14 
6 -20 6 7 6 -9 6 -16 6 12 6 -4 7 4 6 16 
6 0 6 -35 6 48 6 -4 6 1 7 -29 6 28 6 -37 
6 40 6 -15 6 -3 6 2 7 -18 6 22 6 12 6 -6 
6 -10 6 -25 7 65 6 -51 6 32 6 -55 6 29 6 -24 
6 -6 7 61 6 -25 6 38 6 -23 6 -41 6 6 6 30 
7 25 6 -35 6 7 6 -8 6 13 6 -44 7 15 6 26 
6 -2 6 15 6 -44 6 31 6 -12 7 -32 6 18 6 10 
6 20 6 6 6 -22 6 16 7 -1 6 -28 6 9 6 11 
6 15 6 -13 6 22 7 -51 6 24 6 -1 6 -1 6 16 
6 2 7 6 6 -7 6 -15 6 -5 6 16 6 -25 6 33 
7 -27 6 0 6 -8 6 11 6 -2 6 18 6 -13 7 23 
6 -38 6 16 6 -26 6 46 6 11 7 -14 6 -21 6 -11 
6 46 6 -31 6 -3 6 10 7 2 6 -12 6 7 6 -13 
6 26 6 -14 6 -3 7 9 6 11 6 -13 6 -4 6 -13 
6 -10 6 19 7 -9 6 0 6 0 6 7 6 19 6 -38 
7 28 6 7 6 3 6 -38 6 18 6 20 6 1 7 -23 
6 10 6 -14 6 -9 6 23 6 6 6 -3 7 -33 6 25 
6 -19 6 20 6 6 6 -28 7 12 6 3 6 -9 6 7 
6 15 6 1 6 8 7 -11 6 24 6 -48 6 -6 6 6 
6 20 6 -15 7 18 2906 364 300 MP stroke
6 29 6 -36 6 -22 6 -2 6 34 6 14 7 -4 6 -17 
6 8 6 -16 6 12 6 -4 7 -27 6 37 6 -3 6 -16 
6 6 6 -31 6 51 7 13 6 -71 6 68 6 -55 6 52 
6 -29 6 28 7 -10 6 -11 6 -21 6 26 6 4 6 -20 
7 14 6 -23 6 -1 6 4 6 26 6 -22 6 5 7 24 
6 -24 6 -13 6 8 6 -32 6 45 6 -5 7 11 6 -16 
6 32 6 -49 6 -2 6 37 6 4 7 -4 6 -24 6 22 
6 12 6 -7 6 39 7 -96 6 74 6 -81 6 106 6 -108 
6 37 6 17 7 -7 6 52 6 -3 6 -52 6 19 6 -18 
6 35 7 0 6 -55 6 26 6 20 6 -8 6 -35 7 45 
6 -36 6 37 6 2 6 -32 6 -5 6 12 7 -25 6 32 
6 0 6 11 6 -15 6 10 6 -16 7 -7 6 -15 6 37 
6 4 6 -36 6 27 7 -5 6 -15 6 10 6 0 6 -14 
6 13 6 26 7 -31 6 9 6 -1 6 4 6 15 6 -30 
6 -5 7 32 6 -8 6 35 6 -43 6 -2 6 3 6 15 
7 -24 6 -30 6 25 6 21 6 6 6 -40 7 49 6 19 
6 -45 6 -2 6 6 6 4 6 -4 7 -9 6 19 6 -32 
6 47 6 -25 6 12 6 -32 7 48 6 -38 6 41 6 -32 
6 36 6 -19 7 -38 6 0 6 34 6 4 6 -7 6 -13 
6 -5 7 25 6 -16 6 -1 6 -9 6 -4 6 14 6 3 
7 -32 6 19 6 30 6 -72 6 46 6 24 6 -5 7 9 
6 -29 6 -25 6 31 6 -9 6 23 7 -4 6 -16 6 -5 
6 19 6 -30 6 -4 6 33 7 -13 6 -15 6 24 6 7 
6 -5 6 11 6 -25 7 28 6 -9 6 -10 6 11 6 -20 
6 32 7 -2 6 -4 6 -22 6 -11 6 52 6 -15 6 -16 
7 -18 6 24 6 12 6 -13 6 -26 6 23 6 -4 7 -22 
6 10 6 -10 6 32 6 -8 6 -1 6 19 7 7 6 -27 
6 -5 6 3 6 2 6 27 7 -25 6 37 6 -29 6 8 
6 -24 6 13 6 11 7 -32 6 24 6 -35 6 32 6 -12 
6 32 6 -1 7 -2 6 -30 6 -15 6 19 6 -3 6 22 
7 -20 6 -18 6 38 6 -23 6 10 6 4 6 -36 7 9 
6 26 6 3 6 6 6 -41 6 14 6 5 7 22 6 -25 
6 48 6 -51 6 6 6 22 6 -21 7 29 6 -35 6 24 
6 3 6 -16 6 5 7 -1 6 -31 6 28 6 -6 6 -13 
6 23 6 -5 7 5 6 -14 6 -26 6 52 6 -32 6 22 
6 6 7 0 6 -19 6 -8 6 28 6 -9 6 15 7 -34 
6 21 6 -6 6 -3 6 12 6 6 6 -15 7 4 6 8 
6 -25 6 22 6 -24 1068 382 300 MP stroke
6 18 6 -15 7 11 6 8 6 19 6 -36 6 -19 6 42 
6 -16 7 -1 6 23 6 -6 6 -10 6 -2 6 -31 7 18 
6 16 6 -19 6 12 6 0 6 13 6 -11 7 4 6 -25 
6 31 6 -6 6 4 6 -35 6 64 7 -32 6 -20 6 3 
6 32 6 -2 6 -21 7 -5 6 28 6 -54 6 39 6 12 
6 -16 6 7 7 -6 6 -14 6 45 6 -22 6 -14 6 24 
6 -21 7 -2 6 -9 6 -24 6 52 6 -10 6 -9 6 15 
7 -25 6 23 6 -14 6 11 6 -10 6 28 7 -18 6 -27 
6 30 6 3 6 -25 6 27 6 -22 7 4 6 2 6 21 
6 3 6 -29 6 37 6 -59 7 44 6 -6 6 6 6 -35 
6 32 6 10 7 -35 6 34 6 -13 6 0 6 3 6 -13 
6 -24 7 28 6 -3 6 9 6 -21 6 0 6 19 6 -16 
7 21 6 -12 6 1 6 11 6 -5 6 -32 441 392 103 MP stroke
/c9 { 1.000000 0.000000 0.000000 sr} bdef
c9
7 3 6 3 6 2 6 3 6 3 6 3 7 3 6 3 
6 3 6 2 6 3 6 3 6 3 7 3 6 3 6 2 
6 3 6 3 6 3 6 3 7 3 6 3 6 3 6 3 
6 3 6 3 7 3 6 3 6 3 6 3 6 2 6 3 
6 3 7 3 6 3 6 3 6 3 6 3 6 3 6 3 
7 3 6 2 6 3 6 3 6 3 6 3 7 3 6 3 
6 2 6 3 6 3 6 3 6 3 7 3 6 3 6 2 
6 3 6 3 6 3 6 3 7 2 6 4 6 3 6 3 
6 3 6 3 6 3 7 3 6 3 6 2 6 3 6 3 
6 3 7 3 6 2 6 3 6 3 6 3 6 3 6 3 
7 3 6 3 6 3 6 2 6 3 6 3 6 3 7 3 
6 2 6 3 6 3 6 3 6 3 7 3 6 3 6 3 
6 2 6 3 6 4 6 2 7 3 6 3 6 2 6 3 
6 3 6 3 6 3 7 3 6 2 6 3 6 3 6 3 
6 3 6 3 7 3 6 3 6 3 6 3 6 2 6 3 
7 3 6 4 6 3 6 3 6 3 6 2 6 3 7 3 
6 3 6 2 6 3 6 3 6 3 6 3 7 2 6 3 
6 3 6 3 6 3 6 2 7 3 6 3 6 3 6 3 
6 3 6 3 6 3 7 3 6 2 6 3 6 3 6 3 
6 3 6 3 7 3 6 3 6 3 6 3 6 3 6 3 
6 2 7 3 6 3 6 3 6 3 6 3 6 3 7 3 
6 3 6 3 6 3 6 3 6 3 6 3 7 3 6 3 
6 3 6 3 6 3 6 3 6 3 7 4 6 3 6 2 
6 3 6 4 6 2 7 3 6 3 6 3 6 3 6 3 
6 2 6 3 7 3 6 3 6 3 6 3 6 2 6 3 
6 4 7 2 6 3 6 3 6 3 6 2 6 3 6 3 
7 3 6 3 6 3 6 3 6 2 6 3 7 3 6 3 
6 3 6 3 6 3 6 3 6 3 7 2 6 3 6 3 
6 3 6 3 6 3 6 3 7 2 6 3 6 3 6 3 
6 3 6 3 7 3 6 2 6 3 6 3 6 3 6 3 
6 3 7 2 6 3 6 3 6 3 6 3 6 3 6 3 
7 3 6 3 6 3 6 3 6 2 6 3 6 3 7 4 
6 3 6 3 6 3 6 3 6 3 7 3 6 3 6 3 
6 3 6 3 6 3 6 3 7 3 6 3 6 3 6 3 
6 3 6 3 6 3 7 3 6 3 6 2 6 4 6 3 
6 3 7 2 6 4 6 3 6 2 6 3 6 3 6 3 
7 3 6 3 6 3 6 3 6 3 6 3 6 3 7 3 
6 3 6 3 6 3 4745 2116 300 MP stroke
6 3 6 3 6 3 7 3 6 3 6 3 6 2 6 3 
6 4 7 2 6 3 6 3 6 3 6 3 6 3 6 3 
7 2 6 3 6 3 6 3 6 3 6 3 6 3 7 3 
6 3 6 3 6 3 6 3 6 3 7 3 6 3 6 2 
6 3 6 3 6 3 6 3 7 3 6 3 6 3 6 3 
6 3 6 3 6 3 7 3 6 3 6 3 6 3 6 3 
6 3 7 3 6 3 6 3 6 3 6 3 6 3 6 3 
7 3 6 3 6 3 6 3 6 2 6 3 6 3 7 3 
6 3 6 3 6 3 6 2 6 3 6 3 7 3 6 3 
6 3 6 3 6 3 6 3 7 3 6 3 6 3 6 3 
6 3 6 2 6 3 7 3 6 3 6 3 6 2 6 3 
6 3 6 3 7 3 6 3 6 3 6 3 6 3 6 3 
7 3 6 3 6 3 6 2 6 3 6 3 6 3 7 3 
6 3 6 3 6 4 6 2 6 3 6 3 7 3 6 3 
6 3 6 3 6 3 6 3 6 2 7 3 6 3 6 3 
6 3 6 3 6 2 7 3 6 3 6 3 6 3 6 3 
6 3 6 3 7 3 6 3 6 2 6 3 6 3 6 3 
6 3 7 3 6 3 6 2 6 3 6 3 6 3 7 3 
6 3 6 3 6 3 6 3 6 3 6 3 7 3 6 3 
6 3 6 3 6 3 6 3 6 3 7 2 6 4 6 2 
6 3 6 3 6 3 6 3 7 3 6 3 6 3 6 3 
6 3 6 2 7 4 6 2 6 3 6 3 6 3 6 3 
6 3 7 4 6 2 6 3 6 3 6 2 6 4 6 3 
7 2 6 3 6 3 6 3 6 3 6 2 7 4 6 3 
6 3 6 2 6 3 6 3 6 3 7 3 6 3 6 3 
6 3 6 3 6 3 6 3 7 2 6 3 6 3 6 3 
6 3 6 3 6 3 7 2 6 3 6 3 6 3 6 3 
6 3 7 3 6 2 6 3 6 3 6 3 6 3 6 3 
7 2 6 3 6 3 6 3 6 3 6 3 6 3 7 3 
6 3 6 3 6 3 6 3 6 3 7 2 6 3 6 3 
6 3 6 3 6 2 6 3 7 3 6 3 6 3 6 3 
6 3 6 3 6 2 7 3 6 3 6 3 6 3 6 3 
6 3 6 3 7 3 6 3 6 3 6 3 6 3 6 2 
7 3 6 3 6 3 6 3 6 3 6 3 6 3 7 2 
6 3 6 3 6 3 6 3 6 3 6 3 7 3 6 3 
6 3 6 3 6 3 6 3 7 3 6 3 6 3 6 3 
6 3 6 3 6 3 7 2 6 3 6 3 6 3 6 3 
6 3 6 3 7 3 2906 1245 300 MP stroke
6 3 6 3 6 3 6 3 6 3 6 3 7 2 6 3 
6 3 6 3 6 3 6 3 7 3 6 3 6 3 6 3 
6 3 6 3 6 3 7 3 6 2 6 3 6 3 6 3 
6 3 6 3 7 3 6 2 6 3 6 3 6 3 6 3 
7 3 6 3 6 3 6 3 6 3 6 3 6 3 7 3 
6 3 6 3 6 3 6 3 6 3 6 3 7 3 6 3 
6 3 6 3 6 3 6 3 6 3 7 2 6 3 6 3 
6 3 6 3 6 3 7 2 6 3 6 3 6 3 6 3 
6 3 6 3 7 3 6 3 6 3 6 2 6 3 6 3 
6 3 7 3 6 2 6 3 6 3 6 3 6 3 7 3 
6 3 6 3 6 3 6 2 6 3 6 3 7 3 6 3 
6 3 6 3 6 3 6 3 6 3 7 3 6 3 6 3 
6 3 6 2 6 4 7 2 6 3 6 3 6 3 6 3 
6 3 6 3 7 3 6 3 6 3 6 3 6 3 6 3 
6 3 7 3 6 3 6 2 6 3 6 3 6 3 6 3 
7 3 6 3 6 3 6 3 6 3 6 3 7 3 6 3 
6 2 6 3 6 3 6 3 6 3 7 3 6 3 6 3 
6 3 6 3 6 3 6 2 7 3 6 3 6 3 6 3 
6 3 6 2 7 3 6 3 6 3 6 3 6 3 6 3 
6 3 7 3 6 3 6 3 6 3 6 3 6 3 6 3 
7 2 6 4 6 3 6 2 6 4 6 3 6 3 7 2 
6 3 6 3 6 3 6 3 6 3 7 3 6 3 6 3 
6 3 6 3 6 3 6 3 7 3 6 3 6 3 6 3 
6 3 6 3 6 3 7 3 6 3 6 3 6 2 6 3 
6 3 7 3 6 3 6 3 6 3 6 3 6 2 6 3 
7 3 6 3 6 3 6 2 6 3 6 3 6 3 7 3 
6 3 6 3 6 4 6 2 6 3 6 3 7 3 6 3 
6 2 6 3 6 3 6 3 7 3 6 3 6 2 6 3 
6 3 6 3 6 3 7 2 6 3 6 3 6 3 6 3 
6 3 6 3 7 3 6 2 6 3 6 3 6 3 6 3 
7 3 6 3 6 3 6 3 6 3 6 3 6 2 7 4 
6 3 6 3 6 2 6 3 6 3 6 3 7 3 6 3 
6 3 6 3 6 3 6 3 6 2 7 3 6 3 6 3 
6 3 6 3 6 3 7 2 6 3 6 3 6 3 6 3 
6 3 6 3 7 3 6 3 6 3 6 3 6 3 6 3 
6 3 7 3 6 3 6 3 6 3 6 2 6 3 7 3 
6 3 6 3 6 3 6 3 6 3 6 2 7 3 6 3 
6 3 6 3 6 3 1068 374 300 MP stroke
6 3 6 3 7 3 6 3 6 2 6 3 6 3 6 3 
6 3 7 3 6 3 6 3 6 2 6 3 6 3 7 3 
6 3 6 3 6 3 6 3 6 3 6 3 7 3 6 3 
6 3 6 3 6 3 6 2 6 4 7 2 6 3 6 3 
6 3 6 3 6 3 7 2 6 3 6 3 6 3 6 3 
6 3 6 3 7 3 6 3 6 3 6 2 6 3 6 3 
6 3 7 3 6 3 6 3 6 3 6 3 6 2 6 3 
7 3 6 3 6 3 6 3 6 3 6 3 7 2 6 3 
6 3 6 3 6 3 6 3 6 3 7 3 6 3 6 3 
6 2 6 3 6 3 6 2 7 4 6 2 6 3 6 3 
6 3 6 3 7 2 6 3 6 3 6 3 6 3 6 3 
6 3 7 3 6 3 6 2 6 3 6 3 6 3 6 3 
7 3 6 3 6 3 6 3 6 3 6 2 441 80 103 MP stroke
/c10 { 0.000000 1.000000 0.000000 sr} bdef
c10
7 -1 6 -2 6 0 6 1 6 1 6 -1 7 0 6 0 
6 1 6 1 6 -1 6 -1 6 -3 7 0 6 -1 6 -1 
6 1 6 0 6 0 6 0 7 1 6 -1 6 -1 6 0 
6 -3 6 0 7 0 6 -1 6 1 6 0 6 0 6 1 
6 1 7 1 6 1 6 0 6 0 6 0 6 0 6 1 
7 0 6 -1 6 -1 6 1 6 2 6 1 7 1 6 -1 
6 -2 6 0 6 1 6 -1 6 -1 7 1 6 -2 6 -1 
6 1 6 -1 6 2 6 1 7 0 6 -1 6 1 6 -1 
6 0 6 0 6 0 7 0 6 0 6 0 6 0 6 0 
6 0 7 0 6 -1 6 0 6 1 6 0 6 1 6 1 
7 0 6 1 6 -2 6 0 6 -2 6 0 6 0 7 -1 
6 0 6 -1 6 -1 6 0 6 0 7 0 6 -1 6 1 
6 0 6 0 6 1 6 0 7 -1 6 0 6 0 6 1 
6 1 6 -1 6 0 7 0 6 1 6 0 6 0 6 0 
6 0 6 1 7 -1 6 -1 6 0 6 -1 6 1 6 2 
7 -1 6 -1 6 1 6 -1 6 0 6 1 6 -2 7 -1 
6 1 6 1 6 0 6 1 6 0 6 0 7 1 6 -1 
6 -1 6 1 6 -1 6 1 7 -1 6 1 6 1 6 0 
6 -1 6 -1 6 2 7 -1 6 0 6 -1 6 1 6 1 
6 1 6 -1 7 0 6 -1 6 -1 6 0 6 1 6 0 
6 -3 7 1 6 0 6 2 6 0 6 2 6 1 7 -1 
6 1 6 0 6 -1 6 0 6 0 6 1 7 0 6 0 
6 1 6 1 6 1 6 1 6 -2 7 -1 6 0 6 0 
6 0 6 1 6 0 7 0 6 -1 6 0 6 1 6 0 
6 -2 6 0 7 1 6 -1 6 0 6 0 6 0 6 1 
6 1 7 -2 6 0 6 0 6 0 6 0 6 -1 6 1 
7 0 6 0 6 -1 6 -1 6 -1 6 0 7 1 6 0 
6 -1 6 -1 6 -3 6 0 6 2 7 -3 6 -1 6 -2 
6 1 6 0 6 -1 6 0 7 0 6 0 6 -1 6 0 
6 1 6 -1 7 -1 6 1 6 0 6 -1 6 0 6 0 
6 0 7 -1 6 1 6 0 6 -1 6 1 6 0 6 1 
7 -1 6 1 6 1 6 -1 6 1 6 1 6 -1 7 1 
6 0 6 -2 6 -1 6 -1 6 1 7 1 6 1 6 -1 
6 0 6 1 6 0 6 -1 7 0 6 0 6 0 6 -1 
6 -1 6 -1 6 -2 7 1 6 -1 6 1 6 2 6 0 
6 -1 7 0 6 1 6 0 6 0 6 1 6 0 6 1 
7 -1 6 0 6 1 6 0 6 0 6 1 6 9 7 0 
6 0 6 1 6 1 4745 517 300 MP stroke
6 0 6 0 6 0 7 2 6 1 6 -1 6 0 6 2 
6 -1 7 1 6 -1 6 0 6 2 6 -2 6 -1 6 2 
7 -1 6 -1 6 0 6 -1 6 -2 6 0 6 -1 7 0 
6 -1 6 0 6 0 6 0 6 -1 7 -1 6 -2 6 0 
6 -1 6 0 6 0 6 -1 7 0 6 -1 6 1 6 2 
6 -1 6 0 6 1 7 1 6 1 6 2 6 0 6 1 
6 1 7 0 6 0 6 -1 6 1 6 -1 6 0 6 0 
7 -1 6 1 6 0 6 0 6 -1 6 1 6 1 7 0 
6 2 6 1 6 0 6 -1 6 -1 6 1 7 -1 6 -1 
6 0 6 2 6 0 6 0 7 1 6 0 6 0 6 1 
6 -1 6 1 6 1 7 -1 6 -2 6 1 6 1 6 -2 
6 1 6 -1 7 0 6 0 6 0 6 1 6 1 6 -2 
7 -1 6 -1 6 -1 6 0 6 0 6 -1 6 0 7 0 
6 0 6 0 6 0 6 0 6 1 6 1 7 -1 6 0 
6 -2 6 0 6 0 6 1 6 -1 7 0 6 0 6 -1 
6 2 6 2 6 0 7 1 6 -1 6 0 6 1 6 -3 
6 1 6 0 7 -1 6 1 6 1 6 0 6 0 6 0 
6 2 7 0 6 1 6 0 6 0 6 0 6 0 7 0 
6 0 6 1 6 0 6 -1 6 0 6 1 7 0 6 -1 
6 1 6 0 6 0 6 1 6 -1 7 0 6 -1 6 0 
6 0 6 1 6 -1 6 1 7 -1 6 1 6 0 6 1 
6 -1 6 0 7 -1 6 0 6 2 6 0 6 1 6 0 
6 1 7 2 6 -1 6 0 6 -1 6 -1 6 -5 6 -5 
7 1 6 0 6 0 6 0 6 0 6 0 7 1 6 -1 
6 1 6 0 6 0 6 -1 6 0 7 1 6 0 6 -1 
6 2 6 0 6 0 6 -1 7 1 6 0 6 -1 6 0 
6 1 6 -1 6 0 7 -1 6 1 6 -1 6 0 6 1 
6 -1 7 0 6 -1 6 2 6 1 6 -2 6 -1 6 1 
7 0 6 -1 6 -2 6 -2 6 0 6 0 6 -1 7 0 
6 1 6 1 6 -1 6 1 6 -1 7 1 6 -1 6 1 
6 1 6 1 6 0 6 1 7 0 6 -1 6 1 6 -2 
6 -1 6 1 6 -2 7 -2 6 0 6 -1 6 0 6 1 
6 1 6 0 7 -1 6 0 6 -1 6 0 6 0 6 0 
7 0 6 0 6 -1 6 0 6 1 6 1 6 0 7 -1 
6 1 6 -1 6 0 6 -1 6 0 6 -1 7 0 6 1 
6 0 6 1 6 0 6 1 7 0 6 -1 6 0 6 0 
6 0 6 0 6 1 7 -1 6 0 6 -1 6 -2 6 1 
6 2 6 0 7 1 2906 528 300 MP stroke
6 0 6 0 6 0 6 1 6 -2 6 2 7 -1 6 -1 
6 -1 6 0 6 1 6 0 7 0 6 0 6 -1 6 0 
6 0 6 -1 6 1 7 1 6 -1 6 1 6 0 6 1 
6 -1 6 0 7 -1 6 1 6 0 6 0 6 -1 6 0 
7 0 6 -1 6 0 6 -1 6 0 6 0 6 1 7 -1 
6 -1 6 0 6 -1 6 -1 6 3 6 -1 7 0 6 0 
6 1 6 0 6 1 6 0 6 -1 7 0 6 0 6 -2 
6 0 6 1 6 0 7 0 6 1 6 1 6 0 6 0 
6 1 6 -1 7 0 6 -1 6 -2 6 0 6 1 6 -2 
6 0 7 0 6 1 6 0 6 -1 6 1 6 0 7 2 
6 0 6 0 6 0 6 1 6 0 6 0 7 -1 6 -1 
6 1 6 -1 6 8 6 0 6 0 7 0 6 1 6 0 
6 1 6 0 6 0 7 -1 6 0 6 1 6 -1 6 1 
6 0 6 0 7 0 6 1 6 1 6 -1 6 -1 6 -1 
6 1 7 0 6 -2 6 0 6 -1 6 0 6 1 6 1 
7 1 6 1 6 -1 6 0 6 0 6 0 7 1 6 1 
6 0 6 -1 6 0 6 1 6 -1 7 1 6 0 6 -2 
6 0 6 0 6 -3 6 1 7 0 6 0 6 1 6 0 
6 -1 6 0 7 1 6 -1 6 9 6 1 6 0 6 0 
6 -2 7 1 6 2 6 0 6 1 6 0 6 0 6 1 
7 0 6 0 6 0 6 0 6 1 6 1 6 -1 7 -1 
6 -1 6 2 6 1 6 -1 6 0 7 1 6 1 6 -1 
6 0 6 -2 6 1 6 1 7 -1 6 1 6 0 6 0 
6 0 6 0 6 0 7 0 6 -1 6 0 6 1 6 -1 
6 2 7 0 6 0 6 0 6 0 6 1 6 -2 6 1 
7 -1 6 0 6 -1 6 2 6 0 6 1 6 1 7 0 
6 1 6 1 6 1 6 1 6 1 6 0 7 0 6 -1 
6 0 6 0 6 0 6 0 7 0 6 1 6 0 6 0 
6 0 6 1 6 1 7 0 6 1 6 0 6 0 6 2 
6 0 6 2 7 -1 6 0 6 1 6 1 6 0 6 2 
7 0 6 0 6 0 6 0 6 1 6 -1 6 0 7 0 
6 2 6 -1 6 1 6 1 6 -1 6 0 7 2 6 -1 
6 0 6 2 6 1 6 2 6 0 7 1 6 0 6 1 
6 1 6 0 6 1 7 0 6 0 6 2 6 -1 6 1 
6 1 6 0 7 1 6 -1 6 1 6 0 6 1 6 2 
6 1 7 1 6 1 6 0 6 1 6 0 6 1 7 2 
6 -2 6 2 6 0 6 2 6 1 6 0 7 -1 6 0 
6 0 6 2 6 1 1068 461 300 MP stroke
6 3 6 1 7 2 6 2 6 1 6 2 6 1 6 2 
6 0 7 0 6 2 6 1 6 1 6 1 6 4 7 1 
6 2 6 1 6 3 6 1 6 1 6 1 7 1 6 3 
6 3 6 2 6 1 6 1 6 2 7 2 6 1 6 3 
6 3 6 1 6 2 7 3 6 2 6 3 6 2 6 4 
6 2 6 4 7 2 6 4 6 1 6 3 6 2 6 3 
6 3 7 2 6 3 6 4 6 3 6 1 6 2 6 4 
7 4 6 4 6 3 6 4 6 4 6 5 7 3 6 5 
6 4 6 4 6 4 6 4 6 4 7 4 6 5 6 5 
6 5 6 6 6 4 6 6 7 6 6 3 6 6 6 4 
6 5 6 5 7 6 6 6 6 6 6 6 6 8 6 9 
6 6 7 6 6 6 6 6 6 9 6 7 6 8 6 8 
7 7 6 8 6 8 6 9 6 7 6 9 441 85 103 MP stroke
gr

13.2 w
c10
0 sg
3298 3996 mt 
(Zeit in s) s
 115 2130 mt  -90 rotate
(Grad in \260) s
90 rotate
 418 3751 mt 
( ) s
6568  119 mt 
( ) s
6 w
1 sg
0 480 2331 0 0 -480 494 3649 4 MP
PP
-2331 0 0 480 2331 0 0 -480 494 3649 5 MP stroke
4 w
DO
SO
6 w
0 sg
 494 3169 mt 2825 3169 L
 494 3649 mt 2825 3649 L
2825 3649 mt 2825 3169 L
 494 3649 mt  494 3169 L
 494 3649 mt 2825 3649 L
 494 3649 mt  494 3169 L
 494 3169 mt 2825 3169 L
 494 3649 mt 2825 3649 L
2825 3649 mt 2825 3169 L
 494 3649 mt  494 3169 L
 970 3304 mt 
(Gyroskop Eingangssignal) s
gs 494 3169 2332 481 rc
13.2 w
c8
365 0 567 3261 2 MP stroke
gr

13.2 w
c8
0 sg
 970 3452 mt 
(Gyroskop integriert nach dt) s
gs 494 3169 2332 481 rc
c9
365 0 567 3409 2 MP stroke
gr

c9
0 sg
 970 3600 mt 
(gefiltertes Signal integriert nach dt) s
gs 494 3169 2332 481 rc
c10
365 0 567 3556 2 MP stroke
6 w
gr

6 w
c10

end %%Color Dict

eplot
%%EndObject

epage
end

showpage

%%Trailer
%%EOF
